{
  "stats": {
    "suites": 1,
    "tests": 1,
    "passes": 0,
    "pending": 0,
    "failures": 1,
    "start": "2021-09-03T17:47:37.285Z",
    "end": "2021-09-03T17:47:50.020Z",
    "duration": 12735,
    "testsRegistered": 1,
    "passPercent": 0,
    "pendingPercent": 0,
    "other": 0,
    "hasOther": false,
    "skipped": 0,
    "hasSkipped": false
  },
  "results": [
    {
      "uuid": "398cbc90-3d0a-4b8b-be5c-319665939838",
      "title": "",
      "fullFile": "cypress/integration/Business.feature",
      "file": "cypress/integration/Business.feature",
      "beforeHooks": [],
      "afterHooks": [],
      "tests": [],
      "suites": [
        {
          "uuid": "d120b24a-1ba5-4315-9394-2bbfc663c602",
          "title": "BusinessCreation",
          "fullFile": "",
          "file": "",
          "beforeHooks": [],
          "afterHooks": [],
          "tests": [
            {
              "title": "Create a Business",
              "fullTitle": "BusinessCreation Create a Business",
              "timedOut": null,
              "duration": 12558,
              "state": "failed",
              "speed": null,
              "pass": false,
              "fail": true,
              "pending": false,
              "context": "{\n  \"title\": \"Failed screenshot\",\n  \"value\": \"screenshots\\\\Business.feature\\\\BusinessCreation -- Create a Business (failed).png\"\n}",
              "code": "const state = window.testState;\nreturn cy\n  .then(() => state.onStartScenario(scenario, indexedSteps))\n  .then(() =>\n    resolveAndRunBeforeHooks.call(this, scenario.tags, state.feature.name)\n  )\n  .then(() =>\n    indexedSteps.forEach((step) =>\n      stepTest.call(this, state, step, rowData)\n    )\n  )\n  .then(() =>\n    resolveAndRunAfterHooks.call(this, scenario.tags, state.feature.name)\n  )\n  .then(() => state.onFinishScenario(scenario));",
              "err": {
                "message": "CypressError: `cy.visit()` failed trying to load:\n\nhttp://orbitclientui.test.vggdev.com/\n\nWe attempted to make an http request to this URL but the request failed without a response.\n\nWe received this error at the network level:\n\n  > Error: getaddrinfo ENOTFOUND orbitclientui.test.vggdev.com\n\nCommon situations why this would fail:\n  - you don't have internet access\n  - you forgot to run / boot your web server\n  - your web server isn't accessible\n  - you have weird network configuration settings on your computer",
                "estack": "CypressError: `cy.visit()` failed trying to load:\n\nhttp://orbitclientui.test.vggdev.com/\n\nWe attempted to make an http request to this URL but the request failed without a response.\n\nWe received this error at the network level:\n\n  > Error: getaddrinfo ENOTFOUND orbitclientui.test.vggdev.com\n\nCommon situations why this would fail:\n  - you don't have internet access\n  - you forgot to run / boot your web server\n  - your web server isn't accessible\n  - you have weird network configuration settings on your computer\n    at http://localhost:63551/__cypress/runner/cypress_runner.js:138220:23\n    at visitFailedByErr (http://localhost:63551/__cypress/runner/cypress_runner.js:137579:12)\n    at http://localhost:63551/__cypress/runner/cypress_runner.js:138219:11\n    at tryCatcher (http://localhost:63551/__cypress/runner/cypress_runner.js:10747:23)\n    at Promise._settlePromiseFromHandler (http://localhost:63551/__cypress/runner/cypress_runner.js:8682:31)\n    at Promise._settlePromise (http://localhost:63551/__cypress/runner/cypress_runner.js:8739:18)\n    at Promise._settlePromise0 (http://localhost:63551/__cypress/runner/cypress_runner.js:8784:10)\n    at Promise._settlePromises (http://localhost:63551/__cypress/runner/cypress_runner.js:8860:18)\n    at _drainQueueStep (http://localhost:63551/__cypress/runner/cypress_runner.js:5454:12)\n    at _drainQueue (http://localhost:63551/__cypress/runner/cypress_runner.js:5447:9)\n    at Async.../../node_modules/bluebird/js/release/async.js.Async._drainQueues (http://localhost:63551/__cypress/runner/cypress_runner.js:5463:5)\n    at Async.drainQueues (http://localhost:63551/__cypress/runner/cypress_runner.js:5333:14)\nFrom Your Spec Code:\n    at Context.eval (http://localhost:63551/__cypress/tests?p=cypress\\integration\\Business.feature:40:6)\n    at Context.resolveAndRunStepDefinition (http://localhost:63551/__cypress/tests?p=cypress\\integration\\Business.feature:10476:9)\n    at Context.eval (http://localhost:63551/__cypress/tests?p=cypress\\integration\\Business.feature:9817:35)\n\nFrom Node.js Internals:\n  Error: getaddrinfo ENOTFOUND orbitclientui.test.vggdev.com\n      at GetAddrInfoReqWrap.onlookup [as oncomplete] (dns.js:67:26)\n  ",
                "diff": null
              },
              "uuid": "6e9c94b9-c0a9-492e-9574-4a622da8e4b7",
              "parentUUID": "d120b24a-1ba5-4315-9394-2bbfc663c602",
              "isHook": false,
              "skipped": false
            }
          ],
          "suites": [],
          "passes": [],
          "failures": [
            "6e9c94b9-c0a9-492e-9574-4a622da8e4b7"
          ],
          "pending": [],
          "skipped": [],
          "duration": 12558,
          "root": false,
          "rootEmpty": false,
          "_timeout": 2000
        }
      ],
      "passes": [],
      "failures": [],
      "pending": [],
      "skipped": [],
      "duration": 0,
      "root": true,
      "rootEmpty": true,
      "_timeout": 2000
    }
  ],
  "meta": {
    "mocha": {
      "version": "7.0.1"
    },
    "mochawesome": {
      "options": {
        "quiet": false,
        "reportFilename": "mochawesome",
        "saveHtml": false,
        "saveJson": true,
        "consoleReporter": "spec",
        "useInlineDiffs": false,
        "code": true
      },
      "version": "6.2.2"
    },
    "marge": {
      "options": {
        "overwrite": false,
        "html": false,
        "json": true
      },
      "version": "5.2.0"
    }
  }
}