{
  "stats": {
    "suites": 1,
    "tests": 1,
    "passes": 0,
    "pending": 0,
    "failures": 1,
    "start": "2021-08-09T11:51:41.935Z",
    "end": "2021-08-09T11:54:37.472Z",
    "duration": 175537,
    "testsRegistered": 1,
    "passPercent": 0,
    "pendingPercent": 0,
    "other": 0,
    "hasOther": false,
    "skipped": 0,
    "hasSkipped": false
  },
  "results": [
    {
      "uuid": "cbe57800-c4a2-41e3-ad8e-4a0f799ac7d1",
      "title": "",
      "fullFile": "cypress/integration/CreateUser.feature",
      "file": "cypress/integration/CreateUser.feature",
      "beforeHooks": [],
      "afterHooks": [],
      "tests": [],
      "suites": [
        {
          "uuid": "142e2048-fc43-4d3b-bbec-d805a12e8ec5",
          "title": "CreateUser",
          "fullFile": "",
          "file": "",
          "beforeHooks": [],
          "afterHooks": [],
          "tests": [
            {
              "title": "Create an already existing client user",
              "fullTitle": "CreateUser Create an already existing client user",
              "timedOut": null,
              "duration": 170852,
              "state": "failed",
              "speed": null,
              "pass": false,
              "fail": true,
              "pending": false,
              "context": "{\n  \"title\": \"Failed screenshot\",\n  \"value\": \"screenshots\\\\CreateUser.feature\\\\CreateUser -- Create an already existing client user (failed).png\"\n}",
              "code": "const state = window.testState;\nreturn cy\n  .then(() => state.onStartScenario(scenario, indexedSteps))\n  .then(() =>\n    resolveAndRunBeforeHooks.call(this, scenario.tags, state.feature.name)\n  )\n  .then(() =>\n    indexedSteps.forEach((step) =>\n      stepTest.call(this, state, step, rowData)\n    )\n  )\n  .then(() =>\n    resolveAndRunAfterHooks.call(this, scenario.tags, state.feature.name)\n  )\n  .then(() => state.onFinishScenario(scenario));",
              "err": {
                "message": "AssertionError: Timed out retrying after 150000ms: Expected to find element: `[group=\"'dashboard'\"] > .navigation-link`, but never found it.",
                "estack": "AssertionError: Timed out retrying after 150000ms: Expected to find element: `[group=\"'dashboard'\"] > .navigation-link`, but never found it.\n    at Function.assertDashboard (https://orbitclientui.test.vggdev.com/__cypress/tests?p=cypress\\integration\\CreateUser.feature:143:10)\n    at Context.eval (https://orbitclientui.test.vggdev.com/__cypress/tests?p=cypress\\integration\\CreateUser.feature:56:26)\n    at Context.resolveAndRunStepDefinition (https://orbitclientui.test.vggdev.com/__cypress/tests?p=cypress\\integration\\CreateUser.feature:10573:9)\n    at Context.eval (https://orbitclientui.test.vggdev.com/__cypress/tests?p=cypress\\integration\\CreateUser.feature:9914:35)",
                "diff": null
              },
              "uuid": "d2fc6819-2ab3-4f2d-92a2-86d36a807f1d",
              "parentUUID": "142e2048-fc43-4d3b-bbec-d805a12e8ec5",
              "isHook": false,
              "skipped": false
            }
          ],
          "suites": [],
          "passes": [],
          "failures": [
            "d2fc6819-2ab3-4f2d-92a2-86d36a807f1d"
          ],
          "pending": [],
          "skipped": [],
          "duration": 170852,
          "root": false,
          "rootEmpty": false,
          "_timeout": 2000
        }
      ],
      "passes": [],
      "failures": [],
      "pending": [],
      "skipped": [],
      "duration": 0,
      "root": true,
      "rootEmpty": true,
      "_timeout": 2000
    }
  ],
  "meta": {
    "mocha": {
      "version": "7.0.1"
    },
    "mochawesome": {
      "options": {
        "quiet": false,
        "reportFilename": "mochawesome",
        "saveHtml": false,
        "saveJson": true,
        "consoleReporter": "spec",
        "useInlineDiffs": false,
        "code": true
      },
      "version": "6.2.2"
    },
    "marge": {
      "options": {
        "overwrite": false,
        "html": false,
        "json": true
      },
      "version": "5.2.0"
    }
  }
}