{
  "stats": {
    "suites": 1,
    "tests": 3,
    "passes": 3,
    "pending": 0,
    "failures": 0,
    "start": "2021-04-22T11:01:35.430Z",
    "end": "2021-04-22T11:05:05.013Z",
    "duration": 209583,
    "testsRegistered": 3,
    "passPercent": 100,
    "pendingPercent": 0,
    "other": 0,
    "hasOther": false,
    "skipped": 0,
    "hasSkipped": false
  },
  "results": [
    {
      "uuid": "468e7d54-3979-44f9-9faa-873c149e3a2b",
      "title": "",
      "fullFile": "cypress/integration/SinglePayout.feature",
      "file": "cypress/integration/SinglePayout.feature",
      "beforeHooks": [],
      "afterHooks": [],
      "tests": [],
      "suites": [
        {
          "uuid": "0beb956e-16b4-4cc3-b2fa-397565c213c7",
          "title": "SinglePayment",
          "fullFile": "",
          "file": "",
          "beforeHooks": [],
          "afterHooks": [],
          "tests": [
            {
              "title": "Make a single disbursement of different user references and transaction purpose (example #1)",
              "fullTitle": "SinglePayment Make a single disbursement of different user references and transaction purpose (example #1)",
              "timedOut": null,
              "duration": 103479,
              "state": "passed",
              "speed": "slow",
              "pass": true,
              "fail": false,
              "pending": false,
              "context": null,
              "code": "const state = window.testState;\nreturn cy\n  .then(() => state.onStartScenario(scenario, indexedSteps))\n  .then(() =>\n    resolveAndRunBeforeHooks.call(this, scenario.tags, state.feature.name)\n  )\n  .then(() =>\n    indexedSteps.forEach((step) =>\n      stepTest.call(this, state, step, rowData)\n    )\n  )\n  .then(() =>\n    resolveAndRunAfterHooks.call(this, scenario.tags, state.feature.name)\n  )\n  .then(() => state.onFinishScenario(scenario));",
              "err": {},
              "uuid": "4f966a61-710d-46e1-a1e3-778ac758c2c0",
              "parentUUID": "0beb956e-16b4-4cc3-b2fa-397565c213c7",
              "isHook": false,
              "skipped": false
            },
            {
              "title": "Make a single disbursement of different user references and transaction purpose (example #2)",
              "fullTitle": "SinglePayment Make a single disbursement of different user references and transaction purpose (example #2)",
              "timedOut": null,
              "duration": 49978,
              "state": "passed",
              "speed": "slow",
              "pass": true,
              "fail": false,
              "pending": false,
              "context": null,
              "code": "const state = window.testState;\nreturn cy\n  .then(() => state.onStartScenario(scenario, indexedSteps))\n  .then(() =>\n    resolveAndRunBeforeHooks.call(this, scenario.tags, state.feature.name)\n  )\n  .then(() =>\n    indexedSteps.forEach((step) =>\n      stepTest.call(this, state, step, rowData)\n    )\n  )\n  .then(() =>\n    resolveAndRunAfterHooks.call(this, scenario.tags, state.feature.name)\n  )\n  .then(() => state.onFinishScenario(scenario));",
              "err": {},
              "uuid": "05800467-9880-4e1d-ad4c-d989a8c6ff62",
              "parentUUID": "0beb956e-16b4-4cc3-b2fa-397565c213c7",
              "isHook": false,
              "skipped": false
            },
            {
              "title": "Make a single disbursement of different user references and transaction purpose (example #3)",
              "fullTitle": "SinglePayment Make a single disbursement of different user references and transaction purpose (example #3)",
              "timedOut": null,
              "duration": 50473,
              "state": "passed",
              "speed": "slow",
              "pass": true,
              "fail": false,
              "pending": false,
              "context": null,
              "code": "const state = window.testState;\nreturn cy\n  .then(() => state.onStartScenario(scenario, indexedSteps))\n  .then(() =>\n    resolveAndRunBeforeHooks.call(this, scenario.tags, state.feature.name)\n  )\n  .then(() =>\n    indexedSteps.forEach((step) =>\n      stepTest.call(this, state, step, rowData)\n    )\n  )\n  .then(() =>\n    resolveAndRunAfterHooks.call(this, scenario.tags, state.feature.name)\n  )\n  .then(() => state.onFinishScenario(scenario));",
              "err": {},
              "uuid": "1811eae6-b2ff-46c4-adb7-19794e495c54",
              "parentUUID": "0beb956e-16b4-4cc3-b2fa-397565c213c7",
              "isHook": false,
              "skipped": false
            }
          ],
          "suites": [],
          "passes": [
            "4f966a61-710d-46e1-a1e3-778ac758c2c0",
            "05800467-9880-4e1d-ad4c-d989a8c6ff62",
            "1811eae6-b2ff-46c4-adb7-19794e495c54"
          ],
          "failures": [],
          "pending": [],
          "skipped": [],
          "duration": 203930,
          "root": false,
          "rootEmpty": false,
          "_timeout": 2000
        }
      ],
      "passes": [],
      "failures": [],
      "pending": [],
      "skipped": [],
      "duration": 0,
      "root": true,
      "rootEmpty": true,
      "_timeout": 2000
    }
  ],
  "meta": {
    "mocha": {
      "version": "7.0.1"
    },
    "mochawesome": {
      "options": {
        "quiet": false,
        "reportFilename": "mochawesome",
        "saveHtml": false,
        "saveJson": true,
        "consoleReporter": "spec",
        "useInlineDiffs": false,
        "code": true
      },
      "version": "6.2.2"
    },
    "marge": {
      "options": {
        "overwrite": false,
        "html": false,
        "json": true
      },
      "version": "5.2.0"
    }
  }
}