{
  "stats": {
    "suites": 1,
    "tests": 1,
    "passes": 0,
    "pending": 0,
    "failures": 1,
    "start": "2021-08-09T11:30:53.115Z",
    "end": "2021-08-09T11:34:33.469Z",
    "duration": 220354,
    "testsRegistered": 1,
    "passPercent": 0,
    "pendingPercent": 0,
    "other": 0,
    "hasOther": false,
    "skipped": 0,
    "hasSkipped": false
  },
  "results": [
    {
      "uuid": "985232d2-ba13-4ba7-9f8b-f63ab4208543",
      "title": "",
      "fullFile": "cypress/integration/AccountBalance.feature",
      "file": "cypress/integration/AccountBalance.feature",
      "beforeHooks": [],
      "afterHooks": [],
      "tests": [],
      "suites": [
        {
          "uuid": "b34ce614-3a69-4f7d-a058-6f0cf7b7edc3",
          "title": "AccountBalance",
          "fullFile": "",
          "file": "",
          "beforeHooks": [],
          "afterHooks": [],
          "tests": [
            {
              "title": "Get Account Balance for a fidelity bank account",
              "fullTitle": "AccountBalance Get Account Balance for a fidelity bank account",
              "timedOut": null,
              "duration": 202992,
              "state": "failed",
              "speed": null,
              "pass": false,
              "fail": true,
              "pending": false,
              "context": "{\n  \"title\": \"Failed screenshot\",\n  \"value\": \"screenshots\\\\AccountBalance.feature\\\\AccountBalance -- Get Account Balance for a fidelity bank account (failed).png\"\n}",
              "code": "const state = window.testState;\nreturn cy\n  .then(() => state.onStartScenario(scenario, indexedSteps))\n  .then(() =>\n    resolveAndRunBeforeHooks.call(this, scenario.tags, state.feature.name)\n  )\n  .then(() =>\n    indexedSteps.forEach((step) =>\n      stepTest.call(this, state, step, rowData)\n    )\n  )\n  .then(() =>\n    resolveAndRunAfterHooks.call(this, scenario.tags, state.feature.name)\n  )\n  .then(() => state.onFinishScenario(scenario));",
              "err": {
                "message": "AssertionError: Timed out retrying after 150000ms: Expected to find element: `[group=\"'dashboard'\"] > .navigation-link`, but never found it.",
                "estack": "AssertionError: Timed out retrying after 150000ms: Expected to find element: `[group=\"'dashboard'\"] > .navigation-link`, but never found it.\n    at Context.eval (https://orbitclientui.test.vggdev.com/__cypress/tests?p=cypress\\integration\\AccountBalance.feature:62:56)\n    at Context.resolveAndRunStepDefinition (https://orbitclientui.test.vggdev.com/__cypress/tests?p=cypress\\integration\\AccountBalance.feature:10469:9)\n    at Context.eval (https://orbitclientui.test.vggdev.com/__cypress/tests?p=cypress\\integration\\AccountBalance.feature:9810:35)",
                "diff": null
              },
              "uuid": "7d37bc48-83de-495b-abce-91310eebc943",
              "parentUUID": "b34ce614-3a69-4f7d-a058-6f0cf7b7edc3",
              "isHook": false,
              "skipped": false
            }
          ],
          "suites": [],
          "passes": [],
          "failures": [
            "7d37bc48-83de-495b-abce-91310eebc943"
          ],
          "pending": [],
          "skipped": [],
          "duration": 202992,
          "root": false,
          "rootEmpty": false,
          "_timeout": 2000
        }
      ],
      "passes": [],
      "failures": [],
      "pending": [],
      "skipped": [],
      "duration": 0,
      "root": true,
      "rootEmpty": true,
      "_timeout": 2000
    }
  ],
  "meta": {
    "mocha": {
      "version": "7.0.1"
    },
    "mochawesome": {
      "options": {
        "quiet": false,
        "reportFilename": "mochawesome",
        "saveHtml": false,
        "saveJson": true,
        "consoleReporter": "spec",
        "useInlineDiffs": false,
        "code": true
      },
      "version": "6.2.2"
    },
    "marge": {
      "options": {
        "overwrite": false,
        "html": false,
        "json": true
      },
      "version": "5.2.0"
    }
  }
}