{
  "stats": {
    "suites": 1,
    "tests": 1,
    "passes": 0,
    "pending": 0,
    "failures": 1,
    "start": "2021-08-09T11:47:50.559Z",
    "end": "2021-08-09T11:50:47.146Z",
    "duration": 176587,
    "testsRegistered": 1,
    "passPercent": 0,
    "pendingPercent": 0,
    "other": 0,
    "hasOther": false,
    "skipped": 0,
    "hasSkipped": false
  },
  "results": [
    {
      "uuid": "267ce7b6-5bff-432e-8968-376859dab991",
      "title": "",
      "fullFile": "cypress/integration/BusinessAccount.feature",
      "file": "cypress/integration/BusinessAccount.feature",
      "beforeHooks": [],
      "afterHooks": [],
      "tests": [],
      "suites": [
        {
          "uuid": "26c0fc9a-83ee-4fe4-bd3b-7c326493401d",
          "title": "Business Account Creation",
          "fullFile": "",
          "file": "",
          "beforeHooks": [],
          "afterHooks": [],
          "tests": [
            {
              "title": "Create a Business Account",
              "fullTitle": "Business Account Creation Create a Business Account",
              "timedOut": null,
              "duration": 171938,
              "state": "failed",
              "speed": null,
              "pass": false,
              "fail": true,
              "pending": false,
              "context": "{\n  \"title\": \"Failed screenshot\",\n  \"value\": \"screenshots\\\\BusinessAccount.feature\\\\Business Account Creation -- Create a Business Account (failed).png\"\n}",
              "code": "const state = window.testState;\nreturn cy\n  .then(() => state.onStartScenario(scenario, indexedSteps))\n  .then(() =>\n    resolveAndRunBeforeHooks.call(this, scenario.tags, state.feature.name)\n  )\n  .then(() =>\n    indexedSteps.forEach((step) =>\n      stepTest.call(this, state, step, rowData)\n    )\n  )\n  .then(() =>\n    resolveAndRunAfterHooks.call(this, scenario.tags, state.feature.name)\n  )\n  .then(() => state.onFinishScenario(scenario));",
              "err": {
                "message": "AssertionError: Timed out retrying after 150000ms: Expected to find element: `.navbar-brand-logo`, but never found it.",
                "estack": "AssertionError: Timed out retrying after 150000ms: Expected to find element: `.navbar-brand-logo`, but never found it.\n    at Context.eval (https://orbitclientui.test.vggdev.com/__cypress/tests?p=cypress\\integration\\BusinessAccount.feature:66:6)\n    at Context.resolveAndRunStepDefinition (https://orbitclientui.test.vggdev.com/__cypress/tests?p=cypress\\integration\\BusinessAccount.feature:10568:9)\n    at Context.eval (https://orbitclientui.test.vggdev.com/__cypress/tests?p=cypress\\integration\\BusinessAccount.feature:9909:35)",
                "diff": null
              },
              "uuid": "90bd3cf1-019d-4915-8a0e-145cbc8257b6",
              "parentUUID": "26c0fc9a-83ee-4fe4-bd3b-7c326493401d",
              "isHook": false,
              "skipped": false
            }
          ],
          "suites": [],
          "passes": [],
          "failures": [
            "90bd3cf1-019d-4915-8a0e-145cbc8257b6"
          ],
          "pending": [],
          "skipped": [],
          "duration": 171938,
          "root": false,
          "rootEmpty": false,
          "_timeout": 2000
        }
      ],
      "passes": [],
      "failures": [],
      "pending": [],
      "skipped": [],
      "duration": 0,
      "root": true,
      "rootEmpty": true,
      "_timeout": 2000
    }
  ],
  "meta": {
    "mocha": {
      "version": "7.0.1"
    },
    "mochawesome": {
      "options": {
        "quiet": false,
        "reportFilename": "mochawesome",
        "saveHtml": false,
        "saveJson": true,
        "consoleReporter": "spec",
        "useInlineDiffs": false,
        "code": true
      },
      "version": "6.2.2"
    },
    "marge": {
      "options": {
        "overwrite": false,
        "html": false,
        "json": true
      },
      "version": "5.2.0"
    }
  }
}